"routine_history","id_etape","date_debut","date_fin","aide","retour"
"1","1","2024-01-31 11:46:26","2024-01-31 11:47:26","0","0"
"1","3","2024-01-31 11:47:26","2024-01-31 11:47:35","0","0"
"2","1","2024-01-31 11:53:43","2024-01-31 11:53:48","0","0"
"2","3","2024-01-31 11:53:48","2024-01-31 11:58:48","0","0"
"3","5","2024-01-31 13:04:53","2024-01-31 13:10:53","0","0"
