id_etape,consigne,id_image,rang_liste,audio_path,est_lue,id_routine
1,Prends la brosse à dent,1,1,http://helloworld.com,0,1
3,Met du dentifrice sur la brosse,1,2,http://helloworld.com,1,1
4,Met la brosse à dents dans ta bouche,1,3,http://helloworld.com,0,1
5,Va dans la douche,1,1,http://helloworld.com,0,2
6,Prend du savon,1,2,http://helloworld.com,1,2
8,Frotte ton corps avec le savon,1,3,http://helloworld.com,0,2
9,Rince toi,1,4,http://helloworld.com,0,2
